%YAML 1.1
%TAG !u! tag:unity3d.com,2011:
--- !u!114 &11400000
MonoBehaviour:
  m_ObjectHideFlags: 0
  m_CorrespondingSourceObject: {fileID: 0}
  m_PrefabInstance: {fileID: 0}
  m_PrefabAsset: {fileID: 0}
  m_GameObject: {fileID: 0}
  m_Enabled: 1
  m_EditorHideFlags: 0
  m_Script: {fileID: 11500000, guid: 4233921ee44e35642931df8df931cad7, type: 3}
  m_Name: 3593DA2B-F734-4C64-9E84-5886CB15F943
  m_EditorClassIdentifier: 
  objectName: Play_Sphere_3
  id: 3086544759
  guid: 3593DA2B-F734-4C64-9E84-5886CB15F943
