%YAML 1.1
%TAG !u! tag:unity3d.com,2011:
--- !u!114 &11400000
MonoBehaviour:
  m_ObjectHideFlags: 0
  m_CorrespondingSourceObject: {fileID: 0}
  m_PrefabInstance: {fileID: 0}
  m_PrefabAsset: {fileID: 0}
  m_GameObject: {fileID: 0}
  m_Enabled: 1
  m_EditorHideFlags: 0
  m_Script: {fileID: 11500000, guid: 4233921ee44e35642931df8df931cad7, type: 3}
  m_Name: 69E2EDF4-6621-41E2-AF25-6C17495A22CE
  m_EditorClassIdentifier: 
  objectName: Play_PelotaRandom
  id: 3257296292
  guid: 69E2EDF4-6621-41E2-AF25-6C17495A22CE
